%YAML 1.1
%TAG !u! tag:unity3d.com,2011:
--- !u!78 &1
TagManager:
  serializedVersion: 2
  tags:
  - Zombie
  - FxTemporaire
  - ZombieHand
  - Obstakle
  - ZombieHandfemale
  - bullet
  - ZombieHandmale
  - ZombieHandhulk
  - addhealth
  - ground
  - addgrenade
  - Bullet
  - SpawnPoint
  layers:
  - Default
  - TransparentFX
  - Ignore Raycast
  - 
  - Water
  - UI
  - 
  - 
  - Enemy
  - PostProcessing
  - 
  - 
  - 
  - 
  - 
  - 
  - 
  - 
  - 
  - 
  - 
  - 
  - 
  - 
  - 
  - 
  - 
  - 
  - 
  - 
  - 
  - 
  m_SortingLayers:
  - name: Default
    uniqueID: 0
    locked: 0
